Chapter 2 The basics of Tidyverse | Book’s title
…
Now, we use the httr package to connect to the API, send the request and get the content. The other steps transform the content from JSON to a standard R object (a list) and then convert it to a tibble (the tidyverse’s improved format for data frames). The element observations is specific for this API, so if we imported data from another source we’d have to check in which element the desired content would be stored.

library(magrittr)
cpi_request <- httr::GET(url = api_request)
cpi_content <- httr::content(cpi_request, as = 'text')
cpi_list    <- jsonlite::fromJSON(cpi_content, flatten = FALSE)
cpi_tbl     <- cpi_list[['observations']] %>% tibble::as_tibble()
cpi_tbl

## # A tibble: 144 × 4
##    realtime_start realtime_end date       value              
##    <chr>          <chr>        <chr>      <chr>              
##  1 2022-02-01     2022-02-01   2010-01-01 0.34174735701485   
##  2 2022-02-01     2022-02-01   2010-02-01 0.024920738207648  
##  3 2022-02-01     2022-02-01   2010-03-01 0.410628353657108  
##  4 2022-02-01     2022-02-01   2010-04-01 0.173688491069743  
##  5 2022-02-01     2022-02-01   2010-05-01 0.0775197354237721 
##  6 2022-02-01     2022-02-01   2010-06-01 -0.0976267084673888
##  7 2022-02-01     2022-02-01   2010-07-01 0.0211043057371509 
##  8 2022-02-01     2022-02-01   2010-08-01 0.138066427840807  
##  9 2022-02-01     2022-02-01   2010-09-01 0.0581736230715569 
## 10 2022-02-01     2022-02-01   2010-10-01 0.124519888847696  
## # … with 134 more rows
…
Note that some countries such as Spain, Portugal and France returned NA. This happened because they probably have any missing value. We could easily ignore it by passing the argument na.rm = TRUE to the max function. However, another problem would arise: countries with no data on new cases would return -Inf. To get around these two issues, we can filter out all the missing values in the data set (the ! before the condition works as a negation). In this case removing the missing values isn’t a problem, but be aware that for some tasks this may influence the outcome.

covid_data_04 <- covid_data %>% 
  dplyr::distinct() %>% 
  dplyr::filter(continent == 'Europe',
                date <= '2021-12-31',
                !is.na(new_cases)) %>% 
  dplyr::group_by(location) %>% 
  dplyr::summarise(max_new_cases = max(new_cases)) %>% 
  dplyr::ungroup()
   
covid_data_04     

## # A tibble: 49 × 2
##    location               max_new_cases
##    <chr>                          <dbl>
##  1 Albania                         1239
##  2 Andorra                          696
##  3 Austria                        15809
##  4 Belarus                         2097
##  5 Belgium                        47836
##  6 Bosnia and Herzegovina          3755
##  7 Bulgaria                        7560
##  8 Croatia                         7315
##  9 Cyprus                          1909
## 10 Czechia                        27793
## # … with 39 more rows
…
Tidy data is also known as wide format – since it increases the number of columns and decreases the number of rows –, as opposed to the long format, where data are stacked increasing the number of rows and decreasing the number of columns. It took me a while before I could tell if a data set was in wide or long format, so don’t worry if it’s not so clear right now. Perhaps a more direct way of thinking about this distinction is to ask yourself: Is all the information contained in a single cell?. If yes, it’s wide format. If not, it’s long format.

For example, is the covid data set in wide or long format? If we took a single cell from the new_cases column, does it convey all the information for this variable? No, it doesn’t. We know the number of new cases in a given date, but we don’t know the country that value refers to – is this from Germany? Nigeria? Chile?

We can use tidyr::pivot_wider to convert from long to wide format. The syntax is very easy to understand: names_from is the column we want to widen, whereas values_from is the column containing the observations that will fill each cell. id_cols is an optional argument used to declare the set of columns that uniquely identifies each observation. In practice, it drops all the other columns in the data set. Hence, if we want to keep all the other variables, just skip it.

covid_wide_01 <- covid_data %>% 
  tidyr::pivot_wider(id_cols     = c('date', 'location'), 
                     names_from  = 'location', 
                     values_from = 'new_cases')

covid_wide_01

## # A tibble: 720 × 239
##    date       Afghanistan Africa Albania Algeria Andorra Angola Anguilla
##    <date>           <dbl>  <dbl>   <dbl>   <dbl>   <dbl>  <dbl>    <dbl>
##  1 2020-02-24           5      0      NA      NA      NA     NA       NA
##  2 2020-02-25           0      1      NA       1      NA     NA       NA
##  3 2020-02-26           0      0      NA       0      NA     NA       NA
##  4 2020-02-27           0      0      NA       0      NA     NA       NA
##  5 2020-02-28           0      1      NA       0      NA     NA       NA
##  6 2020-02-29           0      0      NA       0      NA     NA       NA
##  7 2020-03-01           0      1      NA       0      NA     NA       NA
##  8 2020-03-02           0      4      NA       2       1     NA       NA
##  9 2020-03-03           0      3      NA       2       0     NA       NA
## 10 2020-03-04           0     10      NA       7       0     NA       NA
## # … with 710 more rows, and 231 more variables: Antigua and Barbuda <dbl>,
## #   Argentina <dbl>, Armenia <dbl>, Aruba <dbl>, Asia <dbl>, Australia <dbl>,
## #   Austria <dbl>, Azerbaijan <dbl>, Bahamas <dbl>, Bahrain <dbl>,
## #   Bangladesh <dbl>, Barbados <dbl>, Belarus <dbl>, Belgium <dbl>,
## #   Belize <dbl>, Benin <dbl>, Bermuda <dbl>, Bhutan <dbl>, Bolivia <dbl>,
## #   Bonaire Sint Eustatius and Saba <dbl>, Bosnia and Herzegovina <dbl>,
## #   Botswana <dbl>, Brazil <dbl>, British Virgin Islands <dbl>, Brunei <dbl>, …

Notice that now we have 239 columns rather than 67 of the original data set with each cell conveying the whole information: new cases for a given date for a specific country. So, what if we wanted to have both new_cases and new_deaths columns in wide form? We just need to provide a vector with the desired variables in values_from. By default, the new columns are named according to the following pattern: variable_location.

Since the variables names already contain an underscore, it’s a good idea to set the names separator to another character. This is because many functions have a “names separator” argument, thus it’s much easier to use it if we have a unique separator character. Otherwise, we’d have to use regular expression to inform the specific position of the character – for example, whether it’s the first or the second underscore.

covid_wide_02 <- covid_data %>% 
  tidyr::pivot_wider(id_cols     = c('date', 'location'), 
                     names_from  = 'location', 
                     values_from = c('new_cases', 'new_deaths'),
                     names_sep   = '-')

covid_wide_02

## # A tibble: 720 × 477
##    date       `new_cases-Afghanistan` `new_cases-Africa` `new_cases-Albania`
##    <date>                       <dbl>              <dbl>               <dbl>
##  1 2020-02-24                       5                  0                  NA
##  2 2020-02-25                       0                  1                  NA
##  3 2020-02-26                       0                  0                  NA
##  4 2020-02-27                       0                  0                  NA
##  5 2020-02-28                       0                  1                  NA
##  6 2020-02-29                       0                  0                  NA
##  7 2020-03-01                       0                  1                  NA
##  8 2020-03-02                       0                  4                  NA
##  9 2020-03-03                       0                  3                  NA
## 10 2020-03-04                       0                 10                  NA
## # … with 710 more rows, and 473 more variables: new_cases-Algeria <dbl>,
## #   new_cases-Andorra <dbl>, new_cases-Angola <dbl>, new_cases-Anguilla <dbl>,
## #   new_cases-Antigua and Barbuda <dbl>, new_cases-Argentina <dbl>,
## #   new_cases-Armenia <dbl>, new_cases-Aruba <dbl>, new_cases-Asia <dbl>,
## #   new_cases-Australia <dbl>, new_cases-Austria <dbl>,
## #   new_cases-Azerbaijan <dbl>, new_cases-Bahamas <dbl>,
## #   new_cases-Bahrain <dbl>, new_cases-Bangladesh <dbl>, …
Our new data set expanded to 477 columns. As we create more and more columns to arrange more variables it becomes harder to perform some simple tasks. For example, it’s much easier to use group_by with mutate or summarise when we have the data set in long format. In addition, using filter is generally easier than using a conditional select when we want to keep only the relevant data.

In summary, long format may be preferable over wide format when the data set contains more than one grouping variable or we want to work on more than one variable. Besides, long format data sets are ideal for plotting with ggplot2 package as we’ll see later. Therefore, it’s not unusual to convert a data set from wide to long format.

The syntax is very similar to what we saw earlier when converting from long to wide format. The unique difference is in cols argument, used to declare what columns we want to stack. However, since wide data sets usually have a large number of columns and we’re often interested in putting all of them in long format, it’s much easier to declare what columns we want to leave out (-).

covid_long_01 <- covid_wide_02 %>% 
  tidyr::pivot_longer(cols      = -'date',
                      names_to  = c('variable', 'location'),
                      values_to = 'value',
                      names_sep = '-')

covid_long_01

## # A tibble: 342,720 × 4
##    date       variable  location            value
##    <date>     <chr>     <chr>               <dbl>
##  1 2020-02-24 new_cases Afghanistan             5
##  2 2020-02-24 new_cases Africa                  0
##  3 2020-02-24 new_cases Albania                NA
##  4 2020-02-24 new_cases Algeria                NA
##  5 2020-02-24 new_cases Andorra                NA
##  6 2020-02-24 new_cases Angola                 NA
##  7 2020-02-24 new_cases Anguilla               NA
##  8 2020-02-24 new_cases Antigua and Barbuda    NA
##  9 2020-02-24 new_cases Argentina              NA
## 10 2020-02-24 new_cases Armenia                NA
## # … with 342,710 more rows

Note that now even the variables (new_cases and new_deaths) are stored in a single column (variable). This is probably an abuse of language, but I call this a complete long format – as opposed to the original format where the data set was only partially in the long format (the variables were indeed in wide format). For most applications, I think this is the best way to organize the data.

Converting a data set between wide and long formats might not completely solve our problem. Sometimes, two pieces of information are merged in a single column. For example, suppose that the location column had both the continent and country names instead of only the country as in the original data set. We’ll call this data set covid_loc_cont

## # A tibble: 139,819 × 4
##    location         date       new_cases new_deaths
##    <chr>            <date>         <dbl>      <dbl>
##  1 Afghanistan_Asia 2020-02-24         5         NA
##  2 Afghanistan_Asia 2020-02-25         0         NA
##  3 Afghanistan_Asia 2020-02-26         0         NA
##  4 Afghanistan_Asia 2020-02-27         0         NA
##  5 Afghanistan_Asia 2020-02-28         0         NA
##  6 Afghanistan_Asia 2020-02-29         0         NA
##  7 Afghanistan_Asia 2020-03-01         0         NA
##  8 Afghanistan_Asia 2020-03-02         0         NA
##  9 Afghanistan_Asia 2020-03-03         0         NA
## 10 Afghanistan_Asia 2020-03-04         0         NA
## # … with 139,809 more rows

This is undesirable since we can no longer use group by or filter over continent alone, for instance. Hence, the best practice is to have a single column for each variable. This can be easily achieved using the separate function, with a highly self-explanatory syntax.

covid_separate_01 <- covid_loc_cont %>% 
  dplyr::distinct() %>% 
  tidyr::separate(col  = 'location',
                  into = c('location', 'continent'),
                  sep  = '_')

covid_separate_01

## # A tibble: 139,819 × 5
##    location    continent date       new_cases new_deaths
##    <chr>       <chr>     <date>         <dbl>      <dbl>
##  1 Afghanistan Asia      2020-02-24         5         NA
##  2 Afghanistan Asia      2020-02-25         0         NA
##  3 Afghanistan Asia      2020-02-26         0         NA
##  4 Afghanistan Asia      2020-02-27         0         NA
##  5 Afghanistan Asia      2020-02-28         0         NA
##  6 Afghanistan Asia      2020-02-29         0         NA
##  7 Afghanistan Asia      2020-03-01         0         NA
##  8 Afghanistan Asia      2020-03-02         0         NA
##  9 Afghanistan Asia      2020-03-03         0         NA
## 10 Afghanistan Asia      2020-03-04         0         NA
## # … with 139,809 more rows

The only caveat to all this simplicity is when we have non-trivial separators. For example, imagine that we had no underscore to separate location from continent.

## # A tibble: 139,819 × 4
##    location        date       new_cases new_deaths
##    <chr>           <date>         <dbl>      <dbl>
##  1 AfghanistanAsia 2020-02-24         5         NA
##  2 AfghanistanAsia 2020-02-25         0         NA
##  3 AfghanistanAsia 2020-02-26         0         NA
##  4 AfghanistanAsia 2020-02-27         0         NA
##  5 AfghanistanAsia 2020-02-28         0         NA
##  6 AfghanistanAsia 2020-02-29         0         NA
##  7 AfghanistanAsia 2020-03-01         0         NA
##  8 AfghanistanAsia 2020-03-02         0         NA
##  9 AfghanistanAsia 2020-03-03         0         NA
## 10 AfghanistanAsia 2020-03-04         0         NA
## # … with 139,809 more rows
…
